{
  "movie_details": {
    "550": {
      "id": 550,
      "title": "Fight Club",
      "overview": "A ticking-time-bomb insomniac and a slippery soap salesman channel primal male aggression into a shocking new form of therapy. Their concept catches on, with underground \"fight clubs\" forming in every town, until an eccentric gets in the way and ignites an out-of-control spiral toward oblivion.",
      "release_date": "1999-10-15",
      "runtime": 139,
      "vote_average": 8.433,
      "vote_count": 24892,
      "popularity": 61.416,
      "genres": [
        {
          "id": 18,
          "name": "Drama"
        }
      ],
      "origin_country": ["US"],
      "original_language": "en",
      "production_countries": [
        {
          "iso_3166_1": "US",
          "name": "United States of America"
        }
      ],
      "spoken_languages": [
        {
          "english_name": "English",
          "iso_639_1": "en",
          "name": "English"
        }
      ],
      "budget": 63000000,
      "revenue": 100853753,
      "imdb_id": "tt0137523",
      "status": "Released",
      "tagline": "Mischief. Mayhem. Soap."
    },
    "551": {
      "id": 551,
      "title": "The Matrix",
      "overview": "Set in the 22nd century, The Matrix tells the story of a computer hacker who joins a group of underground insurgents fighting the vast and powerful computers who now rule the earth.",
      "release_date": "1999-03-30",
      "runtime": 136,
      "vote_average": 8.2,
      "vote_count": 20000,
      "popularity": 80.5,
      "genres": [
        {
          "id": 28,
          "name": "Action"
        },
        {
          "id": 878,
          "name": "Science Fiction"
        }
      ],
      "origin_country": ["US"],
      "original_language": "en",
      "production_countries": [
        {
          "iso_3166_1": "US",
          "name": "United States of America"
        }
      ],
      "spoken_languages": [
        {
          "english_name": "English",
          "iso_639_1": "en",
          "name": "English"
        }
      ],
      "budget": 60000000,
      "revenue": 463517383,
      "imdb_id": "tt0133093",
      "status": "Released",
      "tagline": "The fight for the future begins."
    },
    "13": {
      "id": 13,
      "title": "Forrest Gump",
      "overview": "A man with a low IQ has accomplished great things in his life and been present during significant historic events—in each case, far exceeding what anyone imagined he could do.",
      "release_date": "1994-06-23",
      "runtime": 142,
      "vote_average": 8.471,
      "vote_count": 25000,
      "popularity": 75.2,
      "genres": [
        {
          "id": 35,
          "name": "Comedy"
        },
        {
          "id": 18,
          "name": "Drama"
        },
        {
          "id": 10749,
          "name": "Romance"
        }
      ],
      "origin_country": ["US"],
      "original_language": "en",
      "production_countries": [
        {
          "iso_3166_1": "US",
          "name": "United States of America"
        }
      ],
      "spoken_languages": [
        {
          "english_name": "English",
          "iso_639_1": "en",
          "name": "English"
        }
      ],
      "budget": 55000000,
      "revenue": 678200000,
      "imdb_id": "tt0109830",
      "status": "Released",
      "tagline": "The world will never be the same once you've seen it through the eyes of Forrest Gump."
    }
  },
  "movie_credits": {
    "550": {
      "id": 550,
      "cast": [
        {
          "id": 819,
          "name": "Edward Norton",
          "character": "The Narrator",
          "credit_id": "52fe4250c3a36847f80149f3",
          "order": 0,
          "profile_path": "/5XBzD5WuTyVQZeS4VI25z2moMeY.jpg",
          "gender": 2
        },
        {
          "id": 287,
          "name": "Brad Pitt",
          "character": "Tyler Durden",
          "credit_id": "52fe4250c3a36847f80149f7",
          "order": 1,
          "profile_path": "/cckcYc2v0yh1tc9QjRelptcOBko.jpg",
          "gender": 2
        },
        {
          "id": 1283,
          "name": "Helena Bonham Carter",
          "character": "Marla Singer",
          "credit_id": "52fe4250c3a36847f80149fb",
          "order": 2,
          "profile_path": "/DDeITcCpnBd0CkAIRPhggy9bt5.jpg",
          "gender": 1
        }
      ],
      "crew": [
        {
          "id": 7467,
          "name": "David Fincher",
          "job": "Director",
          "department": "Directing",
          "credit_id": "52fe4250c3a36847f8014a05",
          "profile_path": "/tpEczFclQZeKAiCeKZZ0adRvtfz.jpg",
          "gender": 2
        },
        {
          "id": 1254,
          "name": "Art Linson",
          "job": "Producer",
          "department": "Production",
          "credit_id": "52fe4250c3a36847f8014a0b",
          "profile_path": null,
          "gender": 2
        }
      ]
    }
  },
  "discover_movies": {
    "popular": {
      "page": 1,
      "total_pages": 500,
      "total_results": 10000,
      "results": [
        {
          "id": 550,
          "title": "Fight Club",
          "overview": "A ticking-time-bomb insomniac and a slippery soap salesman channel primal male aggression into a shocking new form of therapy.",
          "release_date": "1999-10-15",
          "vote_average": 8.433,
          "vote_count": 24892,
          "popularity": 61.416,
          "genre_ids": [18],
          "origin_country": ["US"],
          "original_language": "en",
          "poster_path": "/pB8BM7pdSp6B6Ih7QZ4DrQ3PmJK.jpg",
          "backdrop_path": "/fCayJrkfRaCRCTh8GqN30f8oyQF.jpg",
          "adult": false,
          "video": false
        },
        {
          "id": 13,
          "title": "Forrest Gump",
          "overview": "A man with a low IQ has accomplished great things in his life and been present during significant historic events.",
          "release_date": "1994-06-23",
          "vote_average": 8.471,
          "vote_count": 25000,
          "popularity": 75.2,
          "genre_ids": [35, 18, 10749],
          "origin_country": ["US"],
          "original_language": "en",
          "poster_path": "/arw2vcBveWOVZr6pxd9XTd1TdQa.jpg",
          "backdrop_path": "/suaEOtk1N1sgg2MTM7oZd2cfVp3.jpg",
          "adult": false,
          "video": false
        },
        {
          "id": 122,
          "title": "The Lord of the Rings: The Return of the King",
          "overview": "Aragorn is revealed as the heir to the ancient kings as he, Gandalf and the other members of the broken fellowship struggle to save Gondor from Sauron's forces.",
          "release_date": "2003-12-01",
          "vote_average": 8.483,
          "vote_count": 22000,
          "popularity": 85.3,
          "genre_ids": [12, 18, 14],
          "origin_country": ["NZ", "US"],
          "original_language": "en",
          "poster_path": "/rCzpDGLbOoPwLjy3OAm5NUPOTrC.jpg",
          "backdrop_path": "/2u7zbn8EudG6kLlBzUYqP8RyFU4.jpg",
          "adult": false,
          "video": false
        },
        {
          "id": 11216,
          "title": "Cinema Paradiso",
          "overview": "A filmmaker recalls his childhood when falling in love with the pictures at the cinema of his home village and forms a deep friendship with the cinema's projectionist.",
          "release_date": "1988-11-17",
          "vote_average": 8.4,
          "vote_count": 3800,
          "popularity": 25.1,
          "genre_ids": [18, 10749],
          "origin_country": ["IT"],
          "original_language": "it",
          "poster_path": "/8SRUfRUi6x4O68n0VCbDNRa6iGL.jpg",
          "backdrop_path": "/loRmRzQXZeqG78TqZuyvSlEQfZb.jpg",
          "adult": false,
          "video": false
        },
        {
          "id": 429617,
          "title": "Spider-Man: Into the Spider-Verse",
          "overview": "Miles Morales is juggling his life between being a high school student and being a spider-man. When Wilson 'Kingpin' Fisk uses a super collider, others from across the Spider-Verse are transported to this dimension.",
          "release_date": "2018-12-07",
          "vote_average": 8.4,
          "vote_count": 15000,
          "popularity": 95.8,
          "genre_ids": [16, 28, 12],
          "origin_country": ["US"],
          "original_language": "en",
          "poster_path": "/iiZZdoQBEYBv6id8su7ImL0oCbD.jpg",
          "backdrop_path": "/7d6EY00g1c39SGZOoCJ5Py9nNth.jpg",
          "adult": false,
          "video": false
        },
        {
          "id": 496243,
          "title": "Parasite",
          "overview": "All unemployed, Ki-taek's family takes peculiar interest in the wealthy and glamorous Parks for their livelihood until they get entangled in an unexpected incident.",
          "release_date": "2019-05-30",
          "vote_average": 8.506,
          "vote_count": 17000,
          "popularity": 88.4,
          "genre_ids": [35, 53, 18],
          "origin_country": ["KR"],
          "original_language": "ko",
          "poster_path": "/7IiTTgloJzvGI1TAYymCfbfl3vT.jpg",
          "backdrop_path": "/TU9NIjwzjoKPwQHoHshkBOgl0Q.jpg",
          "adult": false,
          "video": false
        },
        {
          "id": 129,
          "title": "Spirited Away",
          "overview": "A young girl, Chihiro, becomes trapped in a strange new world of spirits. When her parents undergo a mysterious transformation, she must call upon the courage she never knew she had to free her family.",
          "release_date": "2001-07-20",
          "vote_average": 8.537,
          "vote_count": 14000,
          "popularity": 78.9,
          "genre_ids": [16, 10751, 14],
          "origin_country": ["JP"],
          "original_language": "ja",
          "poster_path": "/39wmItIWsg5sZMyRUHLkWBcuVCM.jpg",
          "backdrop_path": "/Ab8mkHmkYADjU7wQiOkia9BzGvS.jpg",
          "adult": false,
          "video": false
        },
        {
          "id": 155,
          "title": "The Dark Knight",
          "overview": "Batman raises the stakes in his war on crime. With the help of Lt. Jim Gordon and District Attorney Harvey Dent, Batman sets out to dismantle the remaining criminal organizations that plague the streets.",
          "release_date": "2008-07-16",
          "vote_average": 8.516,
          "vote_count": 30000,
          "popularity": 123.5,
          "genre_ids": [18, 28, 80, 53],
          "origin_country": ["US"],
          "original_language": "en",
          "poster_path": "/qJ2tW6WMUDux911r6m7haRef0WH.jpg",
          "backdrop_path": "/dqK9Hag1054tghRQSqLSfrkvQnA.jpg",
          "adult": false,
          "video": false
        }
      ]
    },
    "action_genre": {
      "page": 1,
      "total_pages": 200,
      "total_results": 4000,
      "results": [
        {
          "id": 155,
          "title": "The Dark Knight",
          "overview": "Batman raises the stakes in his war on crime. With the help of Lt. Jim Gordon and District Attorney Harvey Dent, Batman sets out to dismantle the remaining criminal organizations that plague the streets.",
          "release_date": "2008-07-16",
          "vote_average": 8.516,
          "vote_count": 30000,
          "popularity": 123.5,
          "genre_ids": [18, 28, 80, 53],
          "origin_country": ["US"],
          "original_language": "en",
          "poster_path": "/qJ2tW6WMUDux911r6m7haRef0WH.jpg",
          "backdrop_path": "/dqK9Hag1054tghRQSqLSfrkvQnA.jpg",
          "adult": false,
          "video": false
        },
        {
          "id": 27205,
          "title": "Inception",
          "overview": "Cobb, a skilled thief who commits corporate espionage by infiltrating the subconscious of his targets is offered a chance to regain his old life as payment for a task considered to be impossible: \"inception\", the implantation of another person's idea into a target's subconscious.",
          "release_date": "2010-07-08",
          "vote_average": 8.366,
          "vote_count": 33000,
          "popularity": 151.6,
          "genre_ids": [28, 878, 53],
          "origin_country": ["US", "GB"],
          "original_language": "en",
          "poster_path": "/9gk7adHYeDvHkCSEqAvQNLV5Uge.jpg",
          "backdrop_path": "/s2bT29y0ngXxxu2IA8AOzzXTRhd.jpg",
          "adult": false,
          "video": false
        },
        {
          "id": 429617,
          "title": "Spider-Man: Into the Spider-Verse",
          "overview": "Miles Morales is juggling his life between being a high school student and being a spider-man. When Wilson 'Kingpin' Fisk uses a super collider, others from across the Spider-Verse are transported to this dimension.",
          "release_date": "2018-12-07",
          "vote_average": 8.4,
          "vote_count": 15000,
          "popularity": 95.8,
          "genre_ids": [16, 28, 12],
          "origin_country": ["US"],
          "original_language": "en",
          "poster_path": "/iiZZdoQBEYBv6id8su7ImL0oCbD.jpg",
          "backdrop_path": "/7d6EY00g1c39SGZOoCJ5Py9nNth.jpg",
          "adult": false,
          "video": false
        }
      ]
    },
    "diverse_international": {
      "page": 1,
      "total_pages": 150,
      "total_results": 3000,
      "results": [
        {
          "id": 496243,
          "title": "Parasite",
          "overview": "All unemployed, Ki-taek's family takes peculiar interest in the wealthy and glamorous Parks for their livelihood until they get entangled in an unexpected incident.",
          "release_date": "2019-05-30",
          "vote_average": 8.506,
          "vote_count": 17000,
          "popularity": 88.4,
          "genre_ids": [35, 53, 18],
          "origin_country": ["KR"],
          "original_language": "ko",
          "poster_path": "/7IiTTgloJzvGI1TAYymCfbfl3vT.jpg",
          "backdrop_path": "/TU9NIjwzjoKPwQHoHshkBOgl0Q.jpg",
          "adult": false,
          "video": false
        },
        {
          "id": 129,
          "title": "Spirited Away",
          "overview": "A young girl, Chihiro, becomes trapped in a strange new world of spirits. When her parents undergo a mysterious transformation, she must call upon the courage she never knew she had to free her family.",
          "release_date": "2001-07-20",
          "vote_average": 8.537,
          "vote_count": 14000,
          "popularity": 78.9,
          "genre_ids": [16, 10751, 14],
          "origin_country": ["JP"],
          "original_language": "ja",
          "poster_path": "/39wmItIWsg5sZMyRUHLkWBcuVCM.jpg",
          "backdrop_path": "/Ab8mkHmkYADjU7wQiOkia9BzGvS.jpg",
          "adult": false,
          "video": false
        },
        {
          "id": 11216,
          "title": "Cinema Paradiso",
          "overview": "A filmmaker recalls his childhood when falling in love with the pictures at the cinema of his home village and forms a deep friendship with the cinema's projectionist.",
          "release_date": "1988-11-17",
          "vote_average": 8.4,
          "vote_count": 3800,
          "popularity": 25.1,
          "genre_ids": [18, 10749],
          "origin_country": ["IT"],
          "original_language": "it",
          "poster_path": "/8SRUfRUi6x4O68n0VCbDNRa6iGL.jpg",
          "backdrop_path": "/loRmRzQXZeqG78TqZuyvSlEQfZb.jpg",
          "adult": false,
          "video": false
        },
        {
          "id": 19404,
          "title": "Dilwale Dulhania Le Jayenge",
          "overview": "Raj is a rich, carefree, happy-go-lucky second generation NRI. Simran is the daughter of Chaudhary Baldev Singh, who in spite of being an NRI is very strict about adherence to Indian values.",
          "release_date": "1995-10-20",
          "vote_average": 8.7,
          "vote_count": 4200,
          "popularity": 31.8,
          "genre_ids": [35, 18, 10749],
          "origin_country": ["IN"],
          "original_language": "hi",
          "poster_path": "/2CAL2433ZeIihfX1Hb2139CX0pW.jpg",
          "backdrop_path": "/90ezh0iNLlPQE73dqacKt0WyDdM.jpg",
          "adult": false,
          "video": false
        },
        {
          "id": 346,
          "title": "Seven Samurai",
          "overview": "A samurai answers a village's request for protection after he falls on hard times. The town needs protection from bandits, so the samurai gathers six others to help him teach the people how to defend themselves, and the villagers provide the soldiers with food.",
          "release_date": "1954-04-26",
          "vote_average": 8.5,
          "vote_count": 3200,
          "popularity": 20.4,
          "genre_ids": [28, 18],
          "origin_country": ["JP"],
          "original_language": "ja",
          "poster_path": "/8OKmBV5BUFzmozIC3pPWKHy17kx.jpg",
          "backdrop_path": "/sJNNMCc6B7KZIY3LH3JMYJJNH5j.jpg",
          "adult": false,
          "video": false
        },
        {
          "id": 218,
          "title": "The Terminator",
          "overview": "In the post-apocalyptic future, reigning tyrannical supercomputers teleport a cyborg assassin known as the \"Terminator\" back to 1984 to kill Sarah Connor, whose unborn son is destined to lead insurgents against 21st century mechanical hegemony.",
          "release_date": "1984-10-26",
          "vote_average": 7.662,
          "vote_count": 11000,
          "popularity": 44.1,
          "genre_ids": [28, 53, 878],
          "origin_country": ["US"],
          "original_language": "en",
          "poster_path": "/qvktm0BHcnmDpul4Hz01GIazWPr.jpg",
          "backdrop_path": "/6yFoLNQgFdVbA8TZMdfgVpszOla.jpg",
          "adult": false,
          "video": false
        }
      ]
    }
  },
  "errors": {
    "404": {
      "status_code": 34,
      "status_message": "The resource you requested could not be found."
    },
    "401": {
      "status_code": 7,
      "status_message": "Invalid API key: You must be granted a valid key."
    },
    "429": {
      "status_code": 25,
      "status_message": "Your request count (40) is over the allowed limit of 40."
    }
  },
  "genre_list": [
    {"id": 28, "name": "Action"},
    {"id": 12, "name": "Adventure"},
    {"id": 16, "name": "Animation"},
    {"id": 35, "name": "Comedy"},
    {"id": 80, "name": "Crime"},
    {"id": 99, "name": "Documentary"},
    {"id": 18, "name": "Drama"},
    {"id": 10751, "name": "Family"},
    {"id": 14, "name": "Fantasy"},
    {"id": 36, "name": "History"},
    {"id": 27, "name": "Horror"},
    {"id": 10402, "name": "Music"},
    {"id": 9648, "name": "Mystery"},
    {"id": 10749, "name": "Romance"},
    {"id": 878, "name": "Science Fiction"},
    {"id": 10770, "name": "TV Movie"},
    {"id": 53, "name": "Thriller"},
    {"id": 10752, "name": "War"},
    {"id": 37, "name": "Western"}
  ]
}